{
  "images" : [
    {
      "resizing" : {
        "mode" : "9-part",
        "center" : {
          "mode" : "stretch",
          "width" : 1,
          "height" : 1
        },
        "cap-insets" : {
          "bottom" : 25,
          "top" : 25,
          "right" : 22,
          "left" : 23
        }
      },
      "idiom" : "universal",
      "filename" : "inbound.png",
      "scale" : "1x"
    },
    {
      "resizing" : {
        "mode" : "9-part",
        "center" : {
          "mode" : "stretch",
          "width" : 1,
          "height" : 1
        },
        "cap-insets" : {
          "bottom" : 45,
          "top" : 49,
          "right" : 45,
          "left" : 48
        }
      },
      "idiom" : "universal",
      "filename" : "inbound@2x.png",
      "scale" : "2x"
    },
    {
      "resizing" : {
        "mode" : "9-part",
        "center" : {
          "mode" : "stretch",
          "width" : 2,
          "height" : 3
        },
        "cap-insets" : {
          "bottom" : 69,
          "top" : 70,
          "right" : 69,
          "left" : 71
        }
      },
      "idiom" : "universal",
      "filename" : "inbound@3x.png",
      "scale" : "3x"
    }
  ],
  "info" : {
    "version" : 1,
    "author" : "xcode"
  }
}